…
range(posts$post_datetime)

## [1] "2008-09-23 11:50:09 UTC" "2018-03-26 12:12:36 UTC"

# [1] "2008-09-23 11:50:09 UTC" "2018-02-16 18:07:12 UTC"

Number of blogs by department. Shared blogs count once for each department.

Blank department names usually occur when the blog is by an individual

blogs %>%
  unnest(department_names) %>%
  count(department_names, sort = TRUE)

## # A tibble: 101 x 2
##    department_names                                          n
##    <chr>                                                 <int>
##  1 government-digital-service                               10
##  2 ""                                                        8
##  3 civil-service                                             8
##  4 cabinet-office                                            7
##  5 Government Digital Service                                7
##  6 Department for Business, Energy & Industrial Strategy     5
##  7 Department for Work and Pensions                          4
##  8 department-for-environment-food-rural-affairs             4
##  9 driver-and-vehicle-standards-agency                       4
## 10 ministry-of-defence                                       4
## # ... with 91 more rows

Number of blog posts by department.

Posts on shared blogs count once for each department.

posts %>%
  left_join(blogs, by = "blog_url") %>%
  unnest(department_names) %>%
  count(department_names, sort = TRUE)

## # A tibble: 95 x 2
##    department_names                             n
##    <chr>                                    <int>
##  1 cabinet-office                            2533
##  2 government-digital-service                2420
##  3 civil-service                             2345
##  4 public-health-england                     1528
##  5 ministry-of-defence                       1345
##  6 Department for International Development   781
##  7 Government Digital Service                 655
##  8 UK Trade & Investment                      618
##  9 environment-agency                         519
## 10 department-for-education                   482
## # ... with 85 more rows

Number of blog posts by blog. Posts on shared blogs count only once.

posts %>%
  count(blog_name, sort = TRUE)

## # A tibble: 137 x 2
##    blog_name               n
##    <chr>               <int>
##  1 modmedia             1080
##  2 civilservicelocal    1059
##  3 gds                   882
##  4 civilservice          855
##  5 dfid                  781
##  6 publichealthmatters   726
##  7 ukti                  618
##  8 insidegovuk           579
##  9 dfemedia              440
## 10 phescreening          412
## # ... with 127 more rows
…
