…
``` r
# [1] "2008-09-23 11:50:09 UTC" "2018-02-16 18:07:12 UTC"
```

## Number of blogs by department. Shared blogs count once for each department.

Blank department names usually occur when the blog is by an individual

``` r
blogs %>%
  unnest(department_names) %>%
  count(department_names, sort = TRUE)
```

    ## # A tibble: 96 x 2
    ##    department_names                                          n
    ##    <chr>                                                 <int>
    ##  1 government-digital-service                               10
    ##  2 ""                                                        8
    ##  3 civil-service                                             8
    ##  4 cabinet-office                                            7
    ##  5 Government Digital Service                                7
    ##  6 Department for Business, Energy & Industrial Strategy     5
    ##  7 Department for Work and Pensions                          4
    ##  8 department-for-environment-food-rural-affairs             4
    ##  9 driver-and-vehicle-standards-agency                       4
    ## 10 ministry-of-defence                                       4
    ## # ... with 86 more rows

## Number of blog posts by department.

Posts on shared blogs count once for each department.

``` r
posts %>%
  left_join(blogs, by = "blog_url") %>%
  unnest(department_names) %>%
  count(department_names, sort = TRUE)
```

    ## # A tibble: 90 x 2
    ##    department_names                             n
    ##    <chr>                                    <int>
    ##  1 cabinet-office                            2498
    ##  2 government-digital-service                2384
    ##  3 civil-service                             2281
    ##  4 public-health-england                     1484
    ##  5 ministry-of-defence                       1317
    ##  6 Department for International Development   781
    ##  7 Government Digital Service                 655
    ##  8 UK Trade & Investment                      618
    ##  9 environment-agency                         506
    ## 10 department-of-health                       469
    ## # ... with 80 more rows

## Number of blog posts by blog. Posts on shared blogs count only once.

``` r
posts %>%
  count(blog_name, sort = TRUE)
```

    ## # A tibble: 135 x 2
    ##    blog_name               n
    ##    <chr>               <int>
    ##  1 modmedia             1057
    ##  2 civilservicelocal    1040
    ##  3 gds                   874
    ##  4 civilservice          835
    ##  5 dfid                  781
    ##  6 publichealthmatters   703
    ##  7 ukti                  618
    ##  8 insidegovuk           574
    ##  9 dfemedia              415
    ## 10 phescreening          395
    ## # ... with 125 more rows
…
